^C:\USERS\TONYA\SOURCE\REPOS\LABA3 OOOP\LABA3 OOOP\LABA3 OOOP.CPP
C:\USERS\TONYA\SOURCE\REPOS\LABA3 OOOP\LABA3 OOOP\X64\RELEASE\VC142.PDB
C:\USERS\TONYA\SOURCE\REPOS\LABA3 OOOP\LABA3 OOOP\X64\RELEASE\LABA3 OOOP.OBJ
