^C:\Users\Tonya\source\repos\laba3 OOOP\laba3 OOOP\laba3 OOOP.vcxproj
C:\Users\Tonya\source\repos\laba3 OOOP\x64\Release\laba3 OOOP.ipdb
C:\Users\Tonya\source\repos\laba3 OOOP\x64\Release\laba3 OOOP.iobj
