^C:\USERS\TONYA\SOURCE\REPOS\LABA3 OOOP\LABA3 OOOP\X64\DEBUG\LABA3 OOOP.OBJ
/OUT:"C:\USERS\TONYA\SOURCE\REPOS\LABA3 OOOP\X64\DEBUG\LABA3 OOOP.EXE" /INCREMENTAL /NOLOGO /LIBPATH:"C:\USERS\TONYA\DOCUMENTS\PROGRAMMING\SFML-2.5.1-WINDOWS-VC15-64-BIT\SFML-2.5.1\LIB" "SFML-GRAPHICS.LIB" "SFML-WINDOW.LIB" "SFML-SYSTEM.LIB" "SFML-AUDIO.LIB" /MANIFEST /MANIFESTUAC:"level='asInvoker' uiAccess='false'" /manifest:embed /DEBUG:FASTLINK /PDB:"C:\USERS\TONYA\SOURCE\REPOS\LABA3 OOOP\X64\DEBUG\LABA3 OOOP.PDB" /SUBSYSTEM:CONSOLE /TLBID:1 /DYNAMICBASE /NXCOMPAT /IMPLIB:"C:\USERS\TONYA\SOURCE\REPOS\LABA3 OOOP\X64\DEBUG\LABA3 OOOP.LIB" /MACHINE:X64 "X64\DEBUG\LABA3 OOOP.OBJ"
^C:\USERS\TONYA\SOURCE\REPOS\LABA3_OOOP\LAB-3-OOP\LABA3 OOOP\X64\DEBUG\LABA3 OOOP.OBJ
/OUT:"C:\USERS\TONYA\SOURCE\REPOS\LABA3_OOOP\LAB-3-OOP\X64\DEBUG\LABA3 OOOP.EXE" /INCREMENTAL /NOLOGO /LIBPATH:"C:\USERS\TONYA\DOCUMENTS\PROGRAMMING\SFML-2.5.1-WINDOWS-VC15-64-BIT\SFML-2.5.1\LIB" "SFML-GRAPHICS.LIB" "SFML-WINDOW.LIB" "SFML-SYSTEM.LIB" "SFML-AUDIO.LIB" /MANIFEST /MANIFESTUAC:"level='asInvoker' uiAccess='false'" /manifest:embed /DEBUG:FASTLINK /PDB:"C:\USERS\TONYA\SOURCE\REPOS\LABA3_OOOP\LAB-3-OOP\X64\DEBUG\LABA3 OOOP.PDB" /SUBSYSTEM:CONSOLE /TLBID:1 /DYNAMICBASE /NXCOMPAT /IMPLIB:"C:\USERS\TONYA\SOURCE\REPOS\LABA3_OOOP\LAB-3-OOP\X64\DEBUG\LABA3 OOOP.LIB" /MACHINE:X64 "X64\DEBUG\LABA3 OOOP.OBJ"
